[
  {
    "Year": 2000,
    "Make": "Porsche",
    "Model": "911",
    "Badge": "",
    "EngineSize": "3",
    "Transmission": "Manual",
    "DealerId": 1,
    "CarId": 1,
    "CreatedDate": "01/01/0001",
    "LastUpdatedDate": "01/01/0001",
    "Status": 0
  },
  {
    "Year": 2015,
    "Make": "Nissan",
    "Model": "GT-R",
    "Badge": "",
    "EngineSize": "3",
    "Transmission": "Manual",
    "DealerId": 2,
    "CarId": 2,
    "CreatedDate": "01/01/0001",
    "LastUpdatedDate": "01/01/0001",
    "Status": 0
  },
  {
    "Year": 2013,
    "Make": "BMW",
    "Model": "M3",
    "Badge": "",
    "EngineSize": "3",
    "Transmission": "Auto",
    "DealerId": 3,
    "CarId": 3,
    "CreatedDate": "01/01/0001",
    "LastUpdatedDate": "01/01/0001",
    "Status": 0
  },
  {
    "Year": 2017,
    "Make": "Audi",
    "Model": "S5",
    "Badge": "",
    "EngineSize": "3",
    "Transmission": "Auto",
    "DealerId": 4,
    "CarId": 4,
    "CreatedDate": "01/01/0001",
    "LastUpdatedDate": "01/01/0001",
    "Status": 0
  },
  {
    "Year": 2009,
    "Make": "Audi",
    "Model": "TT",
    "Badge": "",
    "EngineSize": "3",
    "Transmission": "Auto",
    "DealerId": 5,
    "CarId": 5,
    "CreatedDate": "01/01/0001",
    "LastUpdatedDate": "01/01/0001",
    "Status": 0
  },
  {
    "Year": 2000,
    "Make": "Toyota",
    "Model": "Camry",
    "Badge": "123",
    "EngineSize": "3",
    "Transmission": "Auto",
    "DealerId": 3,
    "CarId": 6,
    "CreatedDate": "01/01/0001",
    "LastUpdatedDate": "01/01/0001",
    "Status": 0
  },
  {
    "Year": 2016,
    "Make": "Toyota",
    "Model": "Camry",
    "Badge": "123",
    "EngineSize": "4 L",
    "Transmission": "Manual",
    "DealerId": 3,
    "CarId": 7,
    "CreatedDate": "01/01/0001",
    "LastUpdatedDate": "01/01/0001",
    "Status": 0
  },
  {
    "Year": 2000,
    "Make": "Mazda",
    "Model": "Touring",
    "Badge": "Some",
    "EngineSize": "4 L",
    "Transmission": "Auto",
    "DealerId": 1,
    "CarId": 8,
    "CreatedDate": "01/01/0001",
    "LastUpdatedDate": "01/01/0001",
    "Status": 0
  },
  {
    "Year": 2000,
    "Make": "Toyota",
    "Model": "Camry",
    "Badge": "Some Badge",
    "EngineSize": "3 L",
    "Transmission": "Auto",
    "DealerId": 2,
    "CarId": 9,
    "CreatedDate": "26/07/2017",
    "LastUpdatedDate": "26/07/2017",
    "Status": 0
  }
]